Draft
…
2/17/2021

## # A tibble: 5 x 3
##   item_category      n   prop
##   <chr>          <int>  <dbl>
## 1 MAC & CHEESE   69776 0.164 
## 2 MASHED POTATO 206332 0.484 
## 3 OTHER POTATO    5485 0.0129
## 4 OTHERS         40103 0.0940
## 5 SAUSAGE       104936 0.246

get mashed potato data

## # A tibble: 723 x 5
## # Groups:   date_out [723]
##    date_out       n  week month year 
##    <date>     <int> <dbl> <dbl> <fct>
##  1 2019-01-02   220     1     1 2019 
##  2 2019-01-03   190     1     1 2019 
##  3 2019-01-04   283     1     1 2019 
##  4 2019-01-05   295     1     1 2019 
##  5 2019-01-06   342     1     1 2019 
##  6 2019-01-07   259     1     1 2019 
##  7 2019-01-08   255     2     1 2019 
##  8 2019-01-09   203     2     1 2019 
##  9 2019-01-10   104     2     1 2019 
## 10 2019-01-11   428     2     1 2019 
## #  with 713 more rows
…
